Amrit,Chillal,2309,North Park Street,Greater Sudbury,Newfoundland and Labrador,Canada,B3H1A1,1-800-565-8161,Amrit.Chillal@dhl.com
Olugbenro,Devaraj,4456,Fleetview Drive,Regina,Yukon,Canada,B3H1A4,1-877-404-0867,Olugbenro.Devaraj@outlook.com
Vivek,Bhagat,5567,Rogers Drive,Edmonton,Northwest Territories,Canada,B3H1N8,1-902-428-8161,Vivek.Bhagat@wiki.org
Vivek,Irfanoglu,2255,Basinview Drive,Thunder Bay,Northwest Territories,Canada,B3H1M6,1-800-670-4357,Vivek.Irfanoglu@smu.ca
Narendran,Arantes,1234,Parmbelle Lane,Mississauga,Nova Scotia,Canada,B3H1J7,1-877-404-0867,Narendran.Arantes@google.ca
Vivek,QasemiBoroujeni,9990,Kempt Road,Charlottetown;,Nunavut,Canada,B3H1J9,1-902-428-8161,Vivek.QasemiBoroujeni@google.ca
Meghana,Yin,4988,Ramp Pros-2 Ramp,Medicine Hat,Nova Scotia,Canada,B3H1B9,1-877-404-0867,Meghana.Yin@dhl.com
Abhiraj,Arantes,2287,Maplewood Drive,Chicoutimi,Manitoba,Canada,B3H1G9,1-902-428-8161,Abhiraj.Arantes@bluehost.com
Meghana,Omar,9002,North Park Street,Calgary,Nunavut,Canada,B3H1M4,1-800-565-1633,Meghana.Omar@apple.com
Mohannad,Yin,2345,Chisholm Avenue,Victoria,Saskatchewan,Canada,B3H1M3,1-877-404-0867,Mohannad.Yin@wiki.org
Yudhvir,Ibragimova,4567,London Street,Grande Prairie,Yukon,Canada,B3H1M8,1-902-428-8161,Yudhvir.Ibragimova@dhl.com
Sankalp,QasemiBoroujeni,1737,Armdale Rotary,Barrie;,Nova Scotia,Canada,B3H1M2,1-902-428-8161,Sankalp.QasemiBoroujeni@google.ca
Dinesh Kumar,Arantes,2988,Demone Street,Moncton,Yukon,Canada,B3H1A5,1-800-565-2224,Dinesh Kumar.Arantes@dhl.com
Jinal,Yin,2122,Fays Lane,Thunder Bay,Nova Scotia,Canada,B2R1B1,1-800-565-8161,Jinal.Yin@ibm.com
Abhiraj,Bhagat,3368,Ramp Cogs-1 Ramp,Vaughan,Newfoundland and Labrador,Canada,B3H1K5,1-800-565-8161,Abhiraj.Bhagat@smu.ca
Rodolfo,Yin,1236,Wedgewood Avenue,Richmond,Nova Scotia,Canada,B3H1E6,1-800-565-1633,Rodolfo.Yin@bluehost.com
Vivek,Salvi,2349,Sebastian Back Lane,Mississauga,Newfoundland and Labrador,Canada,B3H1M6,1-877-404-0867,Vivek.Salvi@microsoft.ca
Olugbenro,Garcia Barrantes,2134,Smith Street,Edmonton,Ontario,Canada,B3H1J9,1-800-565-2224,Olugbenro.Garcia Barrantes@apple.com
Hanieh,Padmanabhan,8899,Lynwood Drive,St.Albert,Quebec,Canada,B3H1J5,1-902-496-7008,Hanieh.Padmanabhan@wiki.org
Lourdes,Garcia Barrantes,5667,Albert Walker Drive,Whitehorse,Northwest Territories,Canada,B3H1G3,1-800-563-8880,Lourdes.Garcia Barrantes@wiki.org
